{
   "results" : [
      {
         "address_components" : [
            {
               "long_name" : "6",
               "short_name" : "6",
               "types" : [ "street_number" ]
            },
            {
               "long_name" : "Carrer del Túria",
               "short_name" : "Carrer del Túria",
               "types" : [ "route" ]
            },
            {
               "long_name" : "Barcelona",
               "short_name" : "Barcelona",
               "types" : [ "locality", "political" ]
            },
            {
               "long_name" : "Barcelona",
               "short_name" : "B",
               "types" : [ "administrative_area_level_2", "political" ]
            },
            {
               "long_name" : "Catalunya",
               "short_name" : "CT",
               "types" : [ "administrative_area_level_1", "political" ]
            },
            {
               "long_name" : "Spain",
               "short_name" : "ES",
               "types" : [ "country", "political" ]
            },
            {
               "long_name" : "08038",
               "short_name" : "08038",
               "types" : [ "postal_code" ]
            }
         ],
         "formatted_address" : "Carrer del Túria, 6, 08038 Barcelona, Spain",
         "geometry" : {
            "location" : {
               "lat" : 41.3647184,
               "lng" : 2.141572
            },
            "location_type" : "ROOFTOP",
            "viewport" : {
               "northeast" : {
                  "lat" : 41.3660673802915,
                  "lng" : 2.142920980291502
               },
               "southwest" : {
                  "lat" : 41.3633694197085,
                  "lng" : 2.140223019708498
               }
            }
         },
         "place_id" : "ChIJ43BX6Z6YpBIR6EGBcOkDm8E",
         "plus_code" : {
            "compound_code" : "947R+VJ Barcelona, Spain",
            "global_code" : "8FH4947R+VJ"
         },
         "types" : [ "street_address" ]
      }
   ],
   "status" : "OK"
}
